[{"key": "VINCH", "name": "VINCH", "data": [{
  "metric": "duplicated_lines_density",
  "history": [
    {
      "date": "2021-11-26T15:05:56-0300",
      "value": "13.4"
    },
    {
      "date": "2021-11-29T10:32:46-0300",
      "value": "13.2"
    },
    {
      "date": "2021-12-10T09:57:08-0300",
      "value": "11.3"
    },
    {
      "date": "2021-12-17T20:06:30-0300",
      "value": "11.2"
    },
    {
      "date": "2021-12-21T16:19:00-0300",
      "value": "11.1"
    },
    {
      "date": "2022-01-03T14:04:32-0300",
      "value": "11.1"
    },
    {
      "date": "2022-01-04T14:54:45-0300",
      "value": "11.2"
    },
    {
      "date": "2022-01-05T15:12:30-0300",
      "value": "10.9"
    },
    {
      "date": "2022-01-06T09:33:40-0300",
      "value": "10.9"
    },
    {
      "date": "2022-01-07T15:06:45-0300",
      "value": "10.9"
    },
    {
      "date": "2022-01-12T17:39:02-0300",
      "value": "10.9"
    },
    {
      "date": "2022-01-13T16:04:07-0300",
      "value": "10.8"
    },
    {
      "date": "2022-01-18T16:13:51-0300",
      "value": "10.8"
    },
    {
      "date": "2022-01-21T14:35:04-0300",
      "value": "10.7"
    },
    {
      "date": "2022-01-24T15:11:11-0300",
      "value": "10.7"
    },
    {
      "date": "2022-01-25T09:45:22-0300",
      "value": "10.7"
    }
  ]
},{
  "metric": "code_smells",
  "history": [
    {
      "date": "2021-11-26T15:05:56-0300",
      "value": "88"
    },
    {
      "date": "2021-11-29T10:32:46-0300",
      "value": "94"
    },
    {
      "date": "2021-12-10T09:57:08-0300",
      "value": "95"
    },
    {
      "date": "2021-12-17T20:06:30-0300",
      "value": "0"
    },
    {
      "date": "2021-12-21T16:19:00-0300",
      "value": "94"
    },
    {
      "date": "2022-01-03T14:04:32-0300",
      "value": "94"
    },
    {
      "date": "2022-01-04T14:54:45-0300",
      "value": "95"
    },
    {
      "date": "2022-01-05T15:12:30-0300",
      "value": "94"
    },
    {
      "date": "2022-01-06T09:33:40-0300",
      "value": "99"
    },
    {
      "date": "2022-01-07T15:06:45-0300",
      "value": "100"
    },
    {
      "date": "2022-01-12T17:39:02-0300",
      "value": "99"
    },
    {
      "date": "2022-01-13T16:04:07-0300",
      "value": "99"
    },
    {
      "date": "2022-01-18T16:13:51-0300",
      "value": "99"
    },
    {
      "date": "2022-01-21T14:35:04-0300",
      "value": "90"
    },
    {
      "date": "2022-01-24T15:11:11-0300",
      "value": "86"
    },
    {
      "date": "2022-01-25T09:45:22-0300",
      "value": "88"
    }
  ]
},{
  "metric": "bugs",
  "history": [
    {
      "date": "2021-11-26T15:05:56-0300",
      "value": "11"
    },
    {
      "date": "2021-11-29T10:32:46-0300",
      "value": "11"
    },
    {
      "date": "2021-12-10T09:57:08-0300",
      "value": "11"
    },
    {
      "date": "2021-12-17T20:06:30-0300",
      "value": "0"
    },
    {
      "date": "2021-12-21T16:19:00-0300",
      "value": "12"
    },
    {
      "date": "2022-01-03T14:04:32-0300",
      "value": "12"
    },
    {
      "date": "2022-01-04T14:54:45-0300",
      "value": "11"
    },
    {
      "date": "2022-01-05T15:12:30-0300",
      "value": "12"
    },
    {
      "date": "2022-01-06T09:33:40-0300",
      "value": "12"
    },
    {
      "date": "2022-01-07T15:06:45-0300",
      "value": "12"
    },
    {
      "date": "2022-01-12T17:39:02-0300",
      "value": "13"
    },
    {
      "date": "2022-01-13T16:04:07-0300",
      "value": "13"
    },
    {
      "date": "2022-01-18T16:13:51-0300",
      "value": "13"
    },
    {
      "date": "2022-01-21T14:35:04-0300",
      "value": "13"
    },
    {
      "date": "2022-01-24T15:11:11-0300",
      "value": "12"
    },
    {
      "date": "2022-01-25T09:45:22-0300",
      "value": "12"
    }
  ]
},{
  "metric": "vulnerabilities",
  "history": [
    {
      "date": "2021-11-26T15:05:56-0300",
      "value": "2"
    },
    {
      "date": "2021-11-29T10:32:46-0300",
      "value": "2"
    },
    {
      "date": "2021-12-10T09:57:08-0300",
      "value": "1"
    },
    {
      "date": "2021-12-17T20:06:30-0300",
      "value": "0"
    },
    {
      "date": "2021-12-21T16:19:00-0300",
      "value": "1"
    },
    {
      "date": "2022-01-03T14:04:32-0300",
      "value": "1"
    },
    {
      "date": "2022-01-04T14:54:45-0300",
      "value": "1"
    },
    {
      "date": "2022-01-05T15:12:30-0300",
      "value": "1"
    },
    {
      "date": "2022-01-06T09:33:40-0300",
      "value": "1"
    },
    {
      "date": "2022-01-07T15:06:45-0300",
      "value": "1"
    },
    {
      "date": "2022-01-12T17:39:02-0300",
      "value": "1"
    },
    {
      "date": "2022-01-13T16:04:07-0300",
      "value": "1"
    },
    {
      "date": "2022-01-18T16:13:51-0300",
      "value": "1"
    },
    {
      "date": "2022-01-21T14:35:04-0300",
      "value": "1"
    },
    {
      "date": "2022-01-24T15:11:11-0300",
      "value": "1"
    },
    {
      "date": "2022-01-25T09:45:22-0300",
      "value": "1"
    }
  ]
}]},{"key": "SULFAX", "name": "SULFAX", "data": [{
  "metric": "duplicated_lines_density",
  "history": [
    {
      "date": "2021-11-25T09:13:51-0300",
      "value": "5.8"
    },
    {
      "date": "2021-12-18T14:03:20-0300",
      "value": "5.8"
    }
  ]
},{
  "metric": "code_smells",
  "history": [
    {
      "date": "2021-11-25T09:13:51-0300",
      "value": "509"
    },
    {
      "date": "2021-12-18T14:03:20-0300",
      "value": "509"
    }
  ]
},{
  "metric": "bugs",
  "history": [
    {
      "date": "2021-11-25T09:13:51-0300",
      "value": "12"
    },
    {
      "date": "2021-12-18T14:03:20-0300",
      "value": "12"
    }
  ]
},{
  "metric": "vulnerabilities",
  "history": [
    {
      "date": "2021-11-25T09:13:51-0300",
      "value": "23"
    },
    {
      "date": "2021-12-18T14:03:20-0300",
      "value": "23"
    }
  ]
}]},{"key": "ILLUMITY", "name": "ILLUMITY", "data": [{
  "metric": "duplicated_lines_density",
  "history": [
    {
      "date": "2021-11-25T09:37:20-0300",
      "value": "11.1"
    },
    {
      "date": "2021-11-29T10:48:03-0300",
      "value": "10.0"
    },
    {
      "date": "2021-12-10T11:14:01-0300",
      "value": "7.2"
    },
    {
      "date": "2021-12-18T14:16:04-0300",
      "value": "9.9"
    },
    {
      "date": "2021-12-22T11:45:18-0300",
      "value": "9.8"
    },
    {
      "date": "2022-01-07T10:35:01-0300",
      "value": "6.9"
    },
    {
      "date": "2022-01-14T17:34:18-0300",
      "value": "6.3"
    },
    {
      "date": "2022-01-21T16:48:33-0300",
      "value": "11.6"
    },
    {
      "date": "2022-01-27T10:40:55-0300",
      "value": "12.1"
    },
    {
      "date": "2022-02-03T15:47:37-0300",
      "value": "18.9"
    },
    {
      "date": "2022-02-15T08:48:07-0300",
      "value": "21.4"
    },
    {
      "date": "2022-02-16T09:40:09-0300",
      "value": "21.7"
    },
    {
      "date": "2022-02-17T14:58:20-0300",
      "value": "21.7"
    },
    {
      "date": "2022-02-22T10:16:08-0300",
      "value": "21.7"
    },
    {
      "date": "2022-02-23T16:07:09-0300",
      "value": "20.8"
    },
    {
      "date": "2022-02-25T16:45:16-0300",
      "value": "19.7"
    },
    {
      "date": "2022-03-03T13:45:44-0300",
      "value": "19.6"
    },
    {
      "date": "2022-03-03T13:57:56-0300",
      "value": "19.6"
    },
    {
      "date": "2022-03-03T16:37:58-0300",
      "value": "19.6"
    }
  ]
},{
  "metric": "code_smells",
  "history": [
    {
      "date": "2021-11-25T09:37:20-0300",
      "value": "46"
    },
    {
      "date": "2021-11-29T10:48:03-0300",
      "value": "57"
    },
    {
      "date": "2021-12-10T11:14:01-0300",
      "value": "59"
    },
    {
      "date": "2021-12-18T14:16:04-0300",
      "value": "62"
    },
    {
      "date": "2021-12-22T11:45:18-0300",
      "value": "14"
    },
    {
      "date": "2022-01-07T10:35:01-0300",
      "value": "17"
    },
    {
      "date": "2022-01-14T17:34:18-0300",
      "value": "17"
    },
    {
      "date": "2022-01-21T16:48:33-0300",
      "value": "17"
    },
    {
      "date": "2022-01-27T10:40:55-0300",
      "value": "19"
    },
    {
      "date": "2022-02-03T15:47:37-0300",
      "value": "24"
    },
    {
      "date": "2022-02-15T08:48:07-0300",
      "value": "24"
    },
    {
      "date": "2022-02-16T09:40:09-0300",
      "value": "24"
    },
    {
      "date": "2022-02-17T14:58:20-0300",
      "value": "24"
    },
    {
      "date": "2022-02-22T10:16:08-0300",
      "value": "24"
    },
    {
      "date": "2022-02-23T16:07:09-0300",
      "value": "24"
    },
    {
      "date": "2022-02-25T16:45:16-0300",
      "value": "24"
    },
    {
      "date": "2022-03-03T13:45:44-0300",
      "value": "24"
    },
    {
      "date": "2022-03-03T13:57:56-0300",
      "value": "24"
    },
    {
      "date": "2022-03-03T16:37:58-0300",
      "value": "24"
    }
  ]
},{
  "metric": "bugs",
  "history": [
    {
      "date": "2021-11-25T09:37:20-0300",
      "value": "2"
    },
    {
      "date": "2021-11-29T10:48:03-0300",
      "value": "2"
    },
    {
      "date": "2021-12-10T11:14:01-0300",
      "value": "2"
    },
    {
      "date": "2021-12-18T14:16:04-0300",
      "value": "2"
    },
    {
      "date": "2021-12-22T11:45:18-0300",
      "value": "1"
    },
    {
      "date": "2022-01-07T10:35:01-0300",
      "value": "1"
    },
    {
      "date": "2022-01-14T17:34:18-0300",
      "value": "1"
    },
    {
      "date": "2022-01-21T16:48:33-0300",
      "value": "2"
    },
    {
      "date": "2022-01-27T10:40:55-0300",
      "value": "2"
    },
    {
      "date": "2022-02-03T15:47:37-0300",
      "value": "2"
    },
    {
      "date": "2022-02-15T08:48:07-0300",
      "value": "2"
    },
    {
      "date": "2022-02-16T09:40:09-0300",
      "value": "2"
    },
    {
      "date": "2022-02-17T14:58:20-0300",
      "value": "2"
    },
    {
      "date": "2022-02-22T10:16:08-0300",
      "value": "2"
    },
    {
      "date": "2022-02-23T16:07:09-0300",
      "value": "2"
    },
    {
      "date": "2022-02-25T16:45:16-0300",
      "value": "1"
    },
    {
      "date": "2022-03-03T13:45:44-0300",
      "value": "1"
    },
    {
      "date": "2022-03-03T13:57:56-0300",
      "value": "1"
    },
    {
      "date": "2022-03-03T16:37:58-0300",
      "value": "1"
    }
  ]
},{
  "metric": "vulnerabilities",
  "history": [
    {
      "date": "2021-11-25T09:37:20-0300",
      "value": "0"
    },
    {
      "date": "2021-11-29T10:48:03-0300",
      "value": "0"
    },
    {
      "date": "2021-12-10T11:14:01-0300",
      "value": "0"
    },
    {
      "date": "2021-12-18T14:16:04-0300",
      "value": "0"
    },
    {
      "date": "2021-12-22T11:45:18-0300",
      "value": "0"
    },
    {
      "date": "2022-01-07T10:35:01-0300",
      "value": "0"
    },
    {
      "date": "2022-01-14T17:34:18-0300",
      "value": "0"
    },
    {
      "date": "2022-01-21T16:48:33-0300",
      "value": "0"
    },
    {
      "date": "2022-01-27T10:40:55-0300",
      "value": "1"
    },
    {
      "date": "2022-02-03T15:47:37-0300",
      "value": "1"
    },
    {
      "date": "2022-02-15T08:48:07-0300",
      "value": "1"
    },
    {
      "date": "2022-02-16T09:40:09-0300",
      "value": "1"
    },
    {
      "date": "2022-02-17T14:58:20-0300",
      "value": "1"
    },
    {
      "date": "2022-02-22T10:16:08-0300",
      "value": "1"
    },
    {
      "date": "2022-02-23T16:07:09-0300",
      "value": "1"
    },
    {
      "date": "2022-02-25T16:45:16-0300",
      "value": "1"
    },
    {
      "date": "2022-03-03T13:45:44-0300",
      "value": "1"
    },
    {
      "date": "2022-03-03T13:57:56-0300",
      "value": "1"
    },
    {
      "date": "2022-03-03T16:37:58-0300",
      "value": "1"
    }
  ]
}]},{"key": "SYNTAC", "name": "SYNTAC", "data": [{
  "metric": "duplicated_lines_density",
  "history": [
    {
      "date": "2021-11-25T10:41:48-0300",
      "value": "7.5"
    },
    {
      "date": "2021-12-18T15:03:16-0300",
      "value": "7.5"
    },
    {
      "date": "2022-01-05T09:27:49-0300",
      "value": "7.5"
    },
    {
      "date": "2022-01-05T09:56:31-0300",
      "value": "7.5"
    },
    {
      "date": "2022-01-05T10:05:53-0300",
      "value": "7.5"
    }
  ]
},{
  "metric": "code_smells",
  "history": [
    {
      "date": "2021-11-25T10:41:48-0300",
      "value": "756"
    },
    {
      "date": "2021-12-18T15:03:16-0300",
      "value": "705"
    },
    {
      "date": "2022-01-05T09:27:49-0300",
      "value": "705"
    },
    {
      "date": "2022-01-05T09:56:31-0300",
      "value": "705"
    },
    {
      "date": "2022-01-05T10:05:53-0300",
      "value": "708"
    }
  ]
},{
  "metric": "bugs",
  "history": [
    {
      "date": "2021-11-25T10:41:48-0300",
      "value": "75"
    },
    {
      "date": "2021-12-18T15:03:16-0300",
      "value": "75"
    },
    {
      "date": "2022-01-05T09:27:49-0300",
      "value": "75"
    },
    {
      "date": "2022-01-05T09:56:31-0300",
      "value": "75"
    },
    {
      "date": "2022-01-05T10:05:53-0300",
      "value": "75"
    }
  ]
},{
  "metric": "vulnerabilities",
  "history": [
    {
      "date": "2021-11-25T10:41:48-0300",
      "value": "1"
    },
    {
      "date": "2021-12-18T15:03:16-0300",
      "value": "1"
    },
    {
      "date": "2022-01-05T09:27:49-0300",
      "value": "1"
    },
    {
      "date": "2022-01-05T09:56:31-0300",
      "value": "1"
    },
    {
      "date": "2022-01-05T10:05:53-0300",
      "value": "1"
    }
  ]
}]},{"key": "EDECINE", "name": "EDECINE", "data": [{
  "metric": "duplicated_lines_density",
  "history": [
    {
      "date": "2021-11-26T16:44:17-0300",
      "value": "3.0"
    },
    {
      "date": "2021-11-29T11:20:52-0300",
      "value": "3.0"
    },
    {
      "date": "2021-12-10T17:46:01-0300",
      "value": "2.9"
    },
    {
      "date": "2021-12-18T15:12:19-0300",
      "value": "2.9"
    },
    {
      "date": "2021-12-23T19:04:31-0300",
      "value": "2.9"
    },
    {
      "date": "2021-12-29T13:58:09-0300",
      "value": "2.9"
    },
    {
      "date": "2022-01-08T19:45:42-0300",
      "value": "2.9"
    },
    {
      "date": "2022-01-15T11:28:49-0300",
      "value": "2.9"
    },
    {
      "date": "2022-01-21T17:16:00-0300",
      "value": "2.8"
    },
    {
      "date": "2022-01-28T16:34:51-0300",
      "value": "2.8"
    },
    {
      "date": "2022-02-04T17:58:36-0300",
      "value": "2.3"
    },
    {
      "date": "2022-02-07T17:55:01-0300",
      "value": "2.8"
    },
    {
      "date": "2022-02-08T17:06:47-0300",
      "value": "2.3"
    },
    {
      "date": "2022-02-09T17:24:04-0300",
      "value": "2.3"
    },
    {
      "date": "2022-02-10T17:32:20-0300",
      "value": "2.3"
    },
    {
      "date": "2022-02-11T18:20:05-0300",
      "value": "2.3"
    },
    {
      "date": "2022-02-14T19:13:35-0300",
      "value": "2.3"
    },
    {
      "date": "2022-02-15T20:40:02-0300",
      "value": "2.3"
    },
    {
      "date": "2022-02-16T17:00:15-0300",
      "value": "2.3"
    },
    {
      "date": "2022-02-17T19:23:38-0300",
      "value": "2.3"
    },
    {
      "date": "2022-02-18T19:23:02-0300",
      "value": "2.3"
    },
    {
      "date": "2022-02-19T09:55:07-0300",
      "value": "2.3"
    },
    {
      "date": "2022-02-21T19:09:46-0300",
      "value": "2.3"
    },
    {
      "date": "2022-02-22T17:17:37-0300",
      "value": "2.3"
    },
    {
      "date": "2022-02-23T20:07:17-0300",
      "value": "2.3"
    },
    {
      "date": "2022-02-24T23:01:55-0300",
      "value": "2.3"
    },
    {
      "date": "2022-02-25T18:02:54-0300",
      "value": "2.3"
    },
    {
      "date": "2022-02-28T15:38:59-0300",
      "value": "2.3"
    },
    {
      "date": "2022-03-03T16:29:23-0300",
      "value": "2.3"
    },
    {
      "date": "2022-03-04T08:13:34-0300",
      "value": "2.3"
    },
    {
      "date": "2022-03-04T08:50:20-0300",
      "value": "2.3"
    },
    {
      "date": "2022-03-04T09:15:38-0300",
      "value": "2.3"
    },
    {
      "date": "2022-03-04T10:04:57-0300",
      "value": "2.3"
    },
    {
      "date": "2022-03-04T10:15:45-0300",
      "value": "2.3"
    },
    {
      "date": "2022-03-04T10:18:56-0300",
      "value": "2.3"
    },
    {
      "date": "2022-03-04T10:22:12-0300",
      "value": "2.3"
    },
    {
      "date": "2022-03-04T10:44:28-0300",
      "value": "2.3"
    },
    {
      "date": "2022-03-04T11:17:48-0300",
      "value": "2.3"
    },
    {
      "date": "2022-03-04T11:23:34-0300",
      "value": "2.3"
    },
    {
      "date": "2022-03-04T11:41:40-0300",
      "value": "2.3"
    },
    {
      "date": "2022-03-04T11:44:44-0300",
      "value": "2.3"
    },
    {
      "date": "2022-03-04T12:01:09-0300",
      "value": "2.3"
    },
    {
      "date": "2022-03-04T12:17:47-0300",
      "value": "2.3"
    },
    {
      "date": "2022-03-04T12:33:29-0300",
      "value": "2.3"
    },
    {
      "date": "2022-03-04T12:36:16-0300",
      "value": "2.3"
    },
    {
      "date": "2022-03-04T12:39:01-0300",
      "value": "2.3"
    },
    {
      "date": "2022-03-04T12:41:53-0300",
      "value": "2.3"
    },
    {
      "date": "2022-03-04T12:44:39-0300",
      "value": "2.3"
    },
    {
      "date": "2022-03-04T12:47:31-0300",
      "value": "2.3"
    },
    {
      "date": "2022-03-04T12:58:46-0300",
      "value": "2.3"
    },
    {
      "date": "2022-03-04T13:01:47-0300",
      "value": "2.3"
    },
    {
      "date": "2022-03-04T13:08:38-0300",
      "value": "2.3"
    },
    {
      "date": "2022-03-04T13:11:28-0300",
      "value": "2.3"
    },
    {
      "date": "2022-03-04T13:17:44-0300",
      "value": "2.3"
    },
    {
      "date": "2022-03-04T14:13:24-0300",
      "value": "2.3"
    },
    {
      "date": "2022-03-04T14:17:30-0300",
      "value": "2.3"
    },
    {
      "date": "2022-03-04T14:56:47-0300",
      "value": "2.3"
    },
    {
      "date": "2022-03-04T15:07:31-0300",
      "value": "2.3"
    },
    {
      "date": "2022-03-04T15:24:08-0300",
      "value": "2.3"
    },
    {
      "date": "2022-03-04T15:27:11-0300",
      "value": "2.3"
    },
    {
      "date": "2022-03-04T15:30:10-0300",
      "value": "2.3"
    }
  ]
},{
  "metric": "code_smells",
  "history": [
    {
      "date": "2021-11-26T16:44:17-0300",
      "value": "277"
    },
    {
      "date": "2021-11-29T11:20:52-0300",
      "value": "213"
    },
    {
      "date": "2021-12-10T17:46:01-0300",
      "value": "214"
    },
    {
      "date": "2021-12-18T15:12:19-0300",
      "value": "214"
    },
    {
      "date": "2021-12-23T19:04:31-0300",
      "value": "213"
    },
    {
      "date": "2021-12-29T13:58:09-0300",
      "value": "213"
    },
    {
      "date": "2022-01-08T19:45:42-0300",
      "value": "213"
    },
    {
      "date": "2022-01-15T11:28:49-0300",
      "value": "213"
    },
    {
      "date": "2022-01-21T17:16:00-0300",
      "value": "215"
    },
    {
      "date": "2022-01-28T16:34:51-0300",
      "value": "215"
    },
    {
      "date": "2022-02-04T17:58:36-0300",
      "value": "215"
    },
    {
      "date": "2022-02-07T17:55:01-0300",
      "value": "209"
    },
    {
      "date": "2022-02-08T17:06:47-0300",
      "value": "216"
    },
    {
      "date": "2022-02-09T17:24:04-0300",
      "value": "217"
    },
    {
      "date": "2022-02-10T17:32:20-0300",
      "value": "216"
    },
    {
      "date": "2022-02-11T18:20:05-0300",
      "value": "215"
    },
    {
      "date": "2022-02-14T19:13:35-0300",
      "value": "215"
    },
    {
      "date": "2022-02-15T20:40:02-0300",
      "value": "216"
    },
    {
      "date": "2022-02-16T17:00:15-0300",
      "value": "215"
    },
    {
      "date": "2022-02-17T19:23:38-0300",
      "value": "219"
    },
    {
      "date": "2022-02-18T19:23:02-0300",
      "value": "219"
    },
    {
      "date": "2022-02-19T09:55:07-0300",
      "value": "219"
    },
    {
      "date": "2022-02-21T19:09:46-0300",
      "value": "221"
    },
    {
      "date": "2022-02-22T17:17:37-0300",
      "value": "225"
    },
    {
      "date": "2022-02-23T20:07:17-0300",
      "value": "225"
    },
    {
      "date": "2022-02-24T23:01:55-0300",
      "value": "227"
    },
    {
      "date": "2022-02-25T18:02:54-0300",
      "value": "227"
    },
    {
      "date": "2022-02-28T15:38:59-0300",
      "value": "227"
    },
    {
      "date": "2022-03-03T16:29:23-0300",
      "value": "227"
    },
    {
      "date": "2022-03-04T08:13:34-0300",
      "value": "227"
    },
    {
      "date": "2022-03-04T08:50:20-0300",
      "value": "227"
    },
    {
      "date": "2022-03-04T09:15:38-0300",
      "value": "227"
    },
    {
      "date": "2022-03-04T10:04:57-0300",
      "value": "227"
    },
    {
      "date": "2022-03-04T10:15:45-0300",
      "value": "227"
    },
    {
      "date": "2022-03-04T10:18:56-0300",
      "value": "227"
    },
    {
      "date": "2022-03-04T10:22:12-0300",
      "value": "227"
    },
    {
      "date": "2022-03-04T10:44:28-0300",
      "value": "227"
    },
    {
      "date": "2022-03-04T11:17:48-0300",
      "value": "227"
    },
    {
      "date": "2022-03-04T11:23:34-0300",
      "value": "227"
    },
    {
      "date": "2022-03-04T11:41:40-0300",
      "value": "227"
    },
    {
      "date": "2022-03-04T11:44:44-0300",
      "value": "227"
    },
    {
      "date": "2022-03-04T12:01:09-0300",
      "value": "227"
    },
    {
      "date": "2022-03-04T12:17:47-0300",
      "value": "227"
    },
    {
      "date": "2022-03-04T12:33:29-0300",
      "value": "227"
    },
    {
      "date": "2022-03-04T12:36:16-0300",
      "value": "227"
    },
    {
      "date": "2022-03-04T12:39:01-0300",
      "value": "227"
    },
    {
      "date": "2022-03-04T12:41:53-0300",
      "value": "227"
    },
    {
      "date": "2022-03-04T12:44:39-0300",
      "value": "227"
    },
    {
      "date": "2022-03-04T12:47:31-0300",
      "value": "227"
    },
    {
      "date": "2022-03-04T12:58:46-0300",
      "value": "227"
    },
    {
      "date": "2022-03-04T13:01:47-0300",
      "value": "227"
    },
    {
      "date": "2022-03-04T13:08:38-0300",
      "value": "227"
    },
    {
      "date": "2022-03-04T13:11:28-0300",
      "value": "227"
    },
    {
      "date": "2022-03-04T13:17:44-0300",
      "value": "227"
    },
    {
      "date": "2022-03-04T14:13:24-0300",
      "value": "227"
    },
    {
      "date": "2022-03-04T14:17:30-0300",
      "value": "227"
    },
    {
      "date": "2022-03-04T14:56:47-0300",
      "value": "227"
    },
    {
      "date": "2022-03-04T15:07:31-0300",
      "value": "227"
    },
    {
      "date": "2022-03-04T15:24:08-0300",
      "value": "227"
    },
    {
      "date": "2022-03-04T15:27:11-0300",
      "value": "227"
    },
    {
      "date": "2022-03-04T15:30:10-0300",
      "value": "227"
    }
  ]
},{
  "metric": "bugs",
  "history": [
    {
      "date": "2021-11-26T16:44:17-0300",
      "value": "1983"
    },
    {
      "date": "2021-11-29T11:20:52-0300",
      "value": "1969"
    },
    {
      "date": "2021-12-10T17:46:01-0300",
      "value": "2015"
    },
    {
      "date": "2021-12-18T15:12:19-0300",
      "value": "1975"
    },
    {
      "date": "2021-12-23T19:04:31-0300",
      "value": "1969"
    },
    {
      "date": "2021-12-29T13:58:09-0300",
      "value": "1969"
    },
    {
      "date": "2022-01-08T19:45:42-0300",
      "value": "1971"
    },
    {
      "date": "2022-01-15T11:28:49-0300",
      "value": "1981"
    },
    {
      "date": "2022-01-21T17:16:00-0300",
      "value": "1983"
    },
    {
      "date": "2022-01-28T16:34:51-0300",
      "value": "2045"
    },
    {
      "date": "2022-02-04T17:58:36-0300",
      "value": "1986"
    },
    {
      "date": "2022-02-07T17:55:01-0300",
      "value": "1942"
    },
    {
      "date": "2022-02-08T17:06:47-0300",
      "value": "1989"
    },
    {
      "date": "2022-02-09T17:24:04-0300",
      "value": "1992"
    },
    {
      "date": "2022-02-10T17:32:20-0300",
      "value": "1992"
    },
    {
      "date": "2022-02-11T18:20:05-0300",
      "value": "1994"
    },
    {
      "date": "2022-02-14T19:13:35-0300",
      "value": "1995"
    },
    {
      "date": "2022-02-15T20:40:02-0300",
      "value": "1997"
    },
    {
      "date": "2022-02-16T17:00:15-0300",
      "value": "1997"
    },
    {
      "date": "2022-02-17T19:23:38-0300",
      "value": "2006"
    },
    {
      "date": "2022-02-18T19:23:02-0300",
      "value": "2007"
    },
    {
      "date": "2022-02-19T09:55:07-0300",
      "value": "2007"
    },
    {
      "date": "2022-02-21T19:09:46-0300",
      "value": "2007"
    },
    {
      "date": "2022-02-22T17:17:37-0300",
      "value": "2009"
    },
    {
      "date": "2022-02-23T20:07:17-0300",
      "value": "2009"
    },
    {
      "date": "2022-02-24T23:01:55-0300",
      "value": "2005"
    },
    {
      "date": "2022-02-25T18:02:54-0300",
      "value": "2005"
    },
    {
      "date": "2022-02-28T15:38:59-0300",
      "value": "2005"
    },
    {
      "date": "2022-03-03T16:29:23-0300",
      "value": "2005"
    },
    {
      "date": "2022-03-04T08:13:34-0300",
      "value": "2005"
    },
    {
      "date": "2022-03-04T08:50:20-0300",
      "value": "2005"
    },
    {
      "date": "2022-03-04T09:15:38-0300",
      "value": "2005"
    },
    {
      "date": "2022-03-04T10:04:57-0300",
      "value": "2005"
    },
    {
      "date": "2022-03-04T10:15:45-0300",
      "value": "2005"
    },
    {
      "date": "2022-03-04T10:18:56-0300",
      "value": "2005"
    },
    {
      "date": "2022-03-04T10:22:12-0300",
      "value": "2005"
    },
    {
      "date": "2022-03-04T10:44:28-0300",
      "value": "2005"
    },
    {
      "date": "2022-03-04T11:17:48-0300",
      "value": "2005"
    },
    {
      "date": "2022-03-04T11:23:34-0300",
      "value": "2005"
    },
    {
      "date": "2022-03-04T11:41:40-0300",
      "value": "2005"
    },
    {
      "date": "2022-03-04T11:44:44-0300",
      "value": "2005"
    },
    {
      "date": "2022-03-04T12:01:09-0300",
      "value": "2005"
    },
    {
      "date": "2022-03-04T12:17:47-0300",
      "value": "2005"
    },
    {
      "date": "2022-03-04T12:33:29-0300",
      "value": "2005"
    },
    {
      "date": "2022-03-04T12:36:16-0300",
      "value": "2005"
    },
    {
      "date": "2022-03-04T12:39:01-0300",
      "value": "2005"
    },
    {
      "date": "2022-03-04T12:41:53-0300",
      "value": "2005"
    },
    {
      "date": "2022-03-04T12:44:39-0300",
      "value": "2005"
    },
    {
      "date": "2022-03-04T12:47:31-0300",
      "value": "2005"
    },
    {
      "date": "2022-03-04T12:58:46-0300",
      "value": "2005"
    },
    {
      "date": "2022-03-04T13:01:47-0300",
      "value": "2005"
    },
    {
      "date": "2022-03-04T13:08:38-0300",
      "value": "2005"
    },
    {
      "date": "2022-03-04T13:11:28-0300",
      "value": "2005"
    },
    {
      "date": "2022-03-04T13:17:44-0300",
      "value": "2005"
    },
    {
      "date": "2022-03-04T14:13:24-0300",
      "value": "2005"
    },
    {
      "date": "2022-03-04T14:17:30-0300",
      "value": "2005"
    },
    {
      "date": "2022-03-04T14:56:47-0300",
      "value": "2005"
    },
    {
      "date": "2022-03-04T15:07:31-0300",
      "value": "2005"
    },
    {
      "date": "2022-03-04T15:24:08-0300",
      "value": "2004"
    },
    {
      "date": "2022-03-04T15:27:11-0300",
      "value": "2004"
    },
    {
      "date": "2022-03-04T15:30:10-0300",
      "value": "2004"
    }
  ]
},{
  "metric": "vulnerabilities",
  "history": [
    {
      "date": "2021-11-26T16:44:17-0300",
      "value": "1"
    },
    {
      "date": "2021-11-29T11:20:52-0300",
      "value": "1"
    },
    {
      "date": "2021-12-10T17:46:01-0300",
      "value": "1"
    },
    {
      "date": "2021-12-18T15:12:19-0300",
      "value": "1"
    },
    {
      "date": "2021-12-23T19:04:31-0300",
      "value": "1"
    },
    {
      "date": "2021-12-29T13:58:09-0300",
      "value": "1"
    },
    {
      "date": "2022-01-08T19:45:42-0300",
      "value": "1"
    },
    {
      "date": "2022-01-15T11:28:49-0300",
      "value": "1"
    },
    {
      "date": "2022-01-21T17:16:00-0300",
      "value": "1"
    },
    {
      "date": "2022-01-28T16:34:51-0300",
      "value": "1"
    },
    {
      "date": "2022-02-04T17:58:36-0300",
      "value": "1"
    },
    {
      "date": "2022-02-07T17:55:01-0300",
      "value": "1"
    },
    {
      "date": "2022-02-08T17:06:47-0300",
      "value": "1"
    },
    {
      "date": "2022-02-09T17:24:04-0300",
      "value": "1"
    },
    {
      "date": "2022-02-10T17:32:20-0300",
      "value": "1"
    },
    {
      "date": "2022-02-11T18:20:05-0300",
      "value": "1"
    },
    {
      "date": "2022-02-14T19:13:35-0300",
      "value": "1"
    },
    {
      "date": "2022-02-15T20:40:02-0300",
      "value": "1"
    },
    {
      "date": "2022-02-16T17:00:15-0300",
      "value": "1"
    },
    {
      "date": "2022-02-17T19:23:38-0300",
      "value": "1"
    },
    {
      "date": "2022-02-18T19:23:02-0300",
      "value": "1"
    },
    {
      "date": "2022-02-19T09:55:07-0300",
      "value": "1"
    },
    {
      "date": "2022-02-21T19:09:46-0300",
      "value": "1"
    },
    {
      "date": "2022-02-22T17:17:37-0300",
      "value": "1"
    },
    {
      "date": "2022-02-23T20:07:17-0300",
      "value": "1"
    },
    {
      "date": "2022-02-24T23:01:55-0300",
      "value": "1"
    },
    {
      "date": "2022-02-25T18:02:54-0300",
      "value": "1"
    },
    {
      "date": "2022-02-28T15:38:59-0300",
      "value": "1"
    },
    {
      "date": "2022-03-03T16:29:23-0300",
      "value": "1"
    },
    {
      "date": "2022-03-04T08:13:34-0300",
      "value": "1"
    },
    {
      "date": "2022-03-04T08:50:20-0300",
      "value": "1"
    },
    {
      "date": "2022-03-04T09:15:38-0300",
      "value": "1"
    },
    {
      "date": "2022-03-04T10:04:57-0300",
      "value": "1"
    },
    {
      "date": "2022-03-04T10:15:45-0300",
      "value": "1"
    },
    {
      "date": "2022-03-04T10:18:56-0300",
      "value": "1"
    },
    {
      "date": "2022-03-04T10:22:12-0300",
      "value": "1"
    },
    {
      "date": "2022-03-04T10:44:28-0300",
      "value": "1"
    },
    {
      "date": "2022-03-04T11:17:48-0300",
      "value": "1"
    },
    {
      "date": "2022-03-04T11:23:34-0300",
      "value": "1"
    },
    {
      "date": "2022-03-04T11:41:40-0300",
      "value": "1"
    },
    {
      "date": "2022-03-04T11:44:44-0300",
      "value": "1"
    },
    {
      "date": "2022-03-04T12:01:09-0300",
      "value": "1"
    },
    {
      "date": "2022-03-04T12:17:47-0300",
      "value": "1"
    },
    {
      "date": "2022-03-04T12:33:29-0300",
      "value": "1"
    },
    {
      "date": "2022-03-04T12:36:16-0300",
      "value": "1"
    },
    {
      "date": "2022-03-04T12:39:01-0300",
      "value": "1"
    },
    {
      "date": "2022-03-04T12:41:53-0300",
      "value": "1"
    },
    {
      "date": "2022-03-04T12:44:39-0300",
      "value": "1"
    },
    {
      "date": "2022-03-04T12:47:31-0300",
      "value": "1"
    },
    {
      "date": "2022-03-04T12:58:46-0300",
      "value": "1"
    },
    {
      "date": "2022-03-04T13:01:47-0300",
      "value": "1"
    },
    {
      "date": "2022-03-04T13:08:38-0300",
      "value": "1"
    },
    {
      "date": "2022-03-04T13:11:28-0300",
      "value": "1"
    },
    {
      "date": "2022-03-04T13:17:44-0300",
      "value": "1"
    },
    {
      "date": "2022-03-04T14:13:24-0300",
      "value": "1"
    },
    {
      "date": "2022-03-04T14:17:30-0300",
      "value": "1"
    },
    {
      "date": "2022-03-04T14:56:47-0300",
      "value": "1"
    },
    {
      "date": "2022-03-04T15:07:31-0300",
      "value": "1"
    },
    {
      "date": "2022-03-04T15:24:08-0300",
      "value": "1"
    },
    {
      "date": "2022-03-04T15:27:11-0300",
      "value": "1"
    },
    {
      "date": "2022-03-04T15:30:10-0300",
      "value": "1"
    }
  ]
}]},{"key": "ZENOLUX", "name": "ZENOLUX", "data": [{
  "metric": "duplicated_lines_density",
  "history": [
    {
      "date": "2021-11-26T18:25:06-0300",
      "value": "1.2"
    },
    {
      "date": "2021-11-29T10:21:25-0300",
      "value": "1.2"
    },
    {
      "date": "2021-12-11T23:19:59-0300",
      "value": "1.2"
    },
    {
      "date": "2021-12-18T15:23:31-0300",
      "value": "1.3"
    },
    {
      "date": "2021-12-23T20:41:04-0300",
      "value": "1.3"
    },
    {
      "date": "2022-01-07T18:27:53-0300",
      "value": "1.3"
    },
    {
      "date": "2022-01-14T18:39:24-0300",
      "value": "1.3"
    },
    {
      "date": "2022-01-21T18:14:12-0300",
      "value": "1.3"
    },
    {
      "date": "2022-01-28T19:22:59-0300",
      "value": "1.3"
    },
    {
      "date": "2022-02-04T21:45:14-0300",
      "value": "1.3"
    },
    {
      "date": "2022-02-07T20:20:12-0300",
      "value": "1.2"
    },
    {
      "date": "2022-02-08T20:16:36-0300",
      "value": "1.2"
    },
    {
      "date": "2022-02-09T19:41:07-0300",
      "value": "1.3"
    },
    {
      "date": "2022-02-10T23:54:05-0300",
      "value": "1.3"
    },
    {
      "date": "2022-02-11T19:26:46-0300",
      "value": "1.3"
    },
    {
      "date": "2022-02-14T19:55:54-0300",
      "value": "1.3"
    },
    {
      "date": "2022-02-15T22:02:36-0300",
      "value": "1.3"
    },
    {
      "date": "2022-02-16T19:37:49-0300",
      "value": "1.3"
    },
    {
      "date": "2022-02-17T19:47:06-0300",
      "value": "1.3"
    },
    {
      "date": "2022-02-18T17:48:04-0300",
      "value": "1.3"
    },
    {
      "date": "2022-02-21T18:30:27-0300",
      "value": "1.3"
    },
    {
      "date": "2022-02-22T17:43:48-0300",
      "value": "1.3"
    },
    {
      "date": "2022-02-23T16:51:02-0300",
      "value": "1.3"
    },
    {
      "date": "2022-02-24T16:30:14-0300",
      "value": "1.2"
    },
    {
      "date": "2022-02-25T17:34:25-0300",
      "value": "1.3"
    },
    {
      "date": "2022-03-03T22:59:23-0300",
      "value": "1.2"
    },
    {
      "date": "2022-03-04T10:16:19-0300",
      "value": "1.3"
    },
    {
      "date": "2022-03-04T10:32:26-0300",
      "value": "1.3"
    },
    {
      "date": "2022-03-04T10:48:56-0300",
      "value": "1.3"
    },
    {
      "date": "2022-03-04T11:03:30-0300",
      "value": "1.3"
    },
    {
      "date": "2022-03-04T11:16:58-0300",
      "value": "1.3"
    },
    {
      "date": "2022-03-04T11:31:22-0300",
      "value": "1.3"
    },
    {
      "date": "2022-03-04T11:57:52-0300",
      "value": "1.3"
    },
    {
      "date": "2022-03-04T14:11:51-0300",
      "value": "1.3"
    },
    {
      "date": "2022-03-04T14:26:55-0300",
      "value": "1.3"
    },
    {
      "date": "2022-03-04T15:13:28-0300",
      "value": "1.2"
    }
  ]
},{
  "metric": "code_smells",
  "history": [
    {
      "date": "2021-11-26T18:25:06-0300",
      "value": "4442"
    },
    {
      "date": "2021-11-29T10:21:25-0300",
      "value": "2820"
    },
    {
      "date": "2021-12-11T23:19:59-0300",
      "value": "2842"
    },
    {
      "date": "2021-12-18T15:23:31-0300",
      "value": "2868"
    },
    {
      "date": "2021-12-23T20:41:04-0300",
      "value": "2870"
    },
    {
      "date": "2022-01-07T18:27:53-0300",
      "value": "2871"
    },
    {
      "date": "2022-01-14T18:39:24-0300",
      "value": "2874"
    },
    {
      "date": "2022-01-21T18:14:12-0300",
      "value": "2874"
    },
    {
      "date": "2022-01-28T19:22:59-0300",
      "value": "2878"
    },
    {
      "date": "2022-02-04T21:45:14-0300",
      "value": "2874"
    },
    {
      "date": "2022-02-07T20:20:12-0300",
      "value": "2882"
    },
    {
      "date": "2022-02-08T20:16:36-0300",
      "value": "2882"
    },
    {
      "date": "2022-02-09T19:41:07-0300",
      "value": "2889"
    },
    {
      "date": "2022-02-10T23:54:05-0300",
      "value": "2880"
    },
    {
      "date": "2022-02-11T19:26:46-0300",
      "value": "2892"
    },
    {
      "date": "2022-02-14T19:55:54-0300",
      "value": "2880"
    },
    {
      "date": "2022-02-15T22:02:36-0300",
      "value": "2881"
    },
    {
      "date": "2022-02-16T19:37:49-0300",
      "value": "2880"
    },
    {
      "date": "2022-02-17T19:47:06-0300",
      "value": "2535"
    },
    {
      "date": "2022-02-18T17:48:04-0300",
      "value": "2880"
    },
    {
      "date": "2022-02-21T18:30:27-0300",
      "value": "2889"
    },
    {
      "date": "2022-02-22T17:43:48-0300",
      "value": "3010"
    },
    {
      "date": "2022-02-23T16:51:02-0300",
      "value": "3010"
    },
    {
      "date": "2022-02-24T16:30:14-0300",
      "value": "3009"
    },
    {
      "date": "2022-02-25T17:34:25-0300",
      "value": "3016"
    },
    {
      "date": "2022-03-03T22:59:23-0300",
      "value": "2669"
    },
    {
      "date": "2022-03-04T10:16:19-0300",
      "value": "3016"
    },
    {
      "date": "2022-03-04T10:32:26-0300",
      "value": "3015"
    },
    {
      "date": "2022-03-04T10:48:56-0300",
      "value": "3015"
    },
    {
      "date": "2022-03-04T11:03:30-0300",
      "value": "3017"
    },
    {
      "date": "2022-03-04T11:16:58-0300",
      "value": "3017"
    },
    {
      "date": "2022-03-04T11:31:22-0300",
      "value": "3017"
    },
    {
      "date": "2022-03-04T11:57:52-0300",
      "value": "3016"
    },
    {
      "date": "2022-03-04T14:11:51-0300",
      "value": "3015"
    },
    {
      "date": "2022-03-04T14:26:55-0300",
      "value": "3017"
    },
    {
      "date": "2022-03-04T15:13:28-0300",
      "value": "2669"
    }
  ]
},{
  "metric": "bugs",
  "history": [
    {
      "date": "2021-11-26T18:25:06-0300",
      "value": "142"
    },
    {
      "date": "2021-11-29T10:21:25-0300",
      "value": "142"
    },
    {
      "date": "2021-12-11T23:19:59-0300",
      "value": "142"
    },
    {
      "date": "2021-12-18T15:23:31-0300",
      "value": "142"
    },
    {
      "date": "2021-12-23T20:41:04-0300",
      "value": "142"
    },
    {
      "date": "2022-01-07T18:27:53-0300",
      "value": "142"
    },
    {
      "date": "2022-01-14T18:39:24-0300",
      "value": "141"
    },
    {
      "date": "2022-01-21T18:14:12-0300",
      "value": "141"
    },
    {
      "date": "2022-01-28T19:22:59-0300",
      "value": "141"
    },
    {
      "date": "2022-02-04T21:45:14-0300",
      "value": "140"
    },
    {
      "date": "2022-02-07T20:20:12-0300",
      "value": "142"
    },
    {
      "date": "2022-02-08T20:16:36-0300",
      "value": "142"
    },
    {
      "date": "2022-02-09T19:41:07-0300",
      "value": "139"
    },
    {
      "date": "2022-02-10T23:54:05-0300",
      "value": "140"
    },
    {
      "date": "2022-02-11T19:26:46-0300",
      "value": "139"
    },
    {
      "date": "2022-02-14T19:55:54-0300",
      "value": "141"
    },
    {
      "date": "2022-02-15T22:02:36-0300",
      "value": "141"
    },
    {
      "date": "2022-02-16T19:37:49-0300",
      "value": "141"
    },
    {
      "date": "2022-02-17T19:47:06-0300",
      "value": "128"
    },
    {
      "date": "2022-02-18T17:48:04-0300",
      "value": "141"
    },
    {
      "date": "2022-02-21T18:30:27-0300",
      "value": "141"
    },
    {
      "date": "2022-02-22T17:43:48-0300",
      "value": "141"
    },
    {
      "date": "2022-02-23T16:51:02-0300",
      "value": "141"
    },
    {
      "date": "2022-02-24T16:30:14-0300",
      "value": "143"
    },
    {
      "date": "2022-02-25T17:34:25-0300",
      "value": "141"
    },
    {
      "date": "2022-03-03T22:59:23-0300",
      "value": "128"
    },
    {
      "date": "2022-03-04T10:16:19-0300",
      "value": "141"
    },
    {
      "date": "2022-03-04T10:32:26-0300",
      "value": "141"
    },
    {
      "date": "2022-03-04T10:48:56-0300",
      "value": "141"
    },
    {
      "date": "2022-03-04T11:03:30-0300",
      "value": "141"
    },
    {
      "date": "2022-03-04T11:16:58-0300",
      "value": "141"
    },
    {
      "date": "2022-03-04T11:31:22-0300",
      "value": "141"
    },
    {
      "date": "2022-03-04T11:57:52-0300",
      "value": "142"
    },
    {
      "date": "2022-03-04T14:11:51-0300",
      "value": "141"
    },
    {
      "date": "2022-03-04T14:26:55-0300",
      "value": "141"
    },
    {
      "date": "2022-03-04T15:13:28-0300",
      "value": "128"
    }
  ]
},{
  "metric": "vulnerabilities",
  "history": [
    {
      "date": "2021-11-26T18:25:06-0300",
      "value": "7"
    },
    {
      "date": "2021-11-29T10:21:25-0300",
      "value": "7"
    },
    {
      "date": "2021-12-11T23:19:59-0300",
      "value": "7"
    },
    {
      "date": "2021-12-18T15:23:31-0300",
      "value": "7"
    },
    {
      "date": "2021-12-23T20:41:04-0300",
      "value": "7"
    },
    {
      "date": "2022-01-07T18:27:53-0300",
      "value": "7"
    },
    {
      "date": "2022-01-14T18:39:24-0300",
      "value": "7"
    },
    {
      "date": "2022-01-21T18:14:12-0300",
      "value": "7"
    },
    {
      "date": "2022-01-28T19:22:59-0300",
      "value": "7"
    },
    {
      "date": "2022-02-04T21:45:14-0300",
      "value": "7"
    },
    {
      "date": "2022-02-07T20:20:12-0300",
      "value": "7"
    },
    {
      "date": "2022-02-08T20:16:36-0300",
      "value": "7"
    },
    {
      "date": "2022-02-09T19:41:07-0300",
      "value": "7"
    },
    {
      "date": "2022-02-10T23:54:05-0300",
      "value": "7"
    },
    {
      "date": "2022-02-11T19:26:46-0300",
      "value": "7"
    },
    {
      "date": "2022-02-14T19:55:54-0300",
      "value": "7"
    },
    {
      "date": "2022-02-15T22:02:36-0300",
      "value": "7"
    },
    {
      "date": "2022-02-16T19:37:49-0300",
      "value": "7"
    },
    {
      "date": "2022-02-17T19:47:06-0300",
      "value": "7"
    },
    {
      "date": "2022-02-18T17:48:04-0300",
      "value": "7"
    },
    {
      "date": "2022-02-21T18:30:27-0300",
      "value": "7"
    },
    {
      "date": "2022-02-22T17:43:48-0300",
      "value": "7"
    },
    {
      "date": "2022-02-23T16:51:02-0300",
      "value": "7"
    },
    {
      "date": "2022-02-24T16:30:14-0300",
      "value": "7"
    },
    {
      "date": "2022-02-25T17:34:25-0300",
      "value": "7"
    },
    {
      "date": "2022-03-03T22:59:23-0300",
      "value": "7"
    },
    {
      "date": "2022-03-04T10:16:19-0300",
      "value": "7"
    },
    {
      "date": "2022-03-04T10:32:26-0300",
      "value": "7"
    },
    {
      "date": "2022-03-04T10:48:56-0300",
      "value": "7"
    },
    {
      "date": "2022-03-04T11:03:30-0300",
      "value": "7"
    },
    {
      "date": "2022-03-04T11:16:58-0300",
      "value": "7"
    },
    {
      "date": "2022-03-04T11:31:22-0300",
      "value": "7"
    },
    {
      "date": "2022-03-04T11:57:52-0300",
      "value": "7"
    },
    {
      "date": "2022-03-04T14:11:51-0300",
      "value": "7"
    },
    {
      "date": "2022-03-04T14:26:55-0300",
      "value": "7"
    },
    {
      "date": "2022-03-04T15:13:28-0300",
      "value": "7"
    }
  ]
}]},{"key": "ENDIPINE", "name": "ENDIPINE", "data": [{
  "metric": "duplicated_lines_density",
  "history": [
    {
      "date": "2021-11-25T16:49:11-0300",
      "value": "9.8"
    },
    {
      "date": "2021-12-18T15:33:15-0300",
      "value": "9.8"
    },
    {
      "date": "2022-01-22T18:26:15-0300",
      "value": "9.8"
    },
    {
      "date": "2022-01-24T08:30:03-0300",
      "value": "9.8"
    },
    {
      "date": "2022-01-26T14:44:56-0300",
      "value": "9.8"
    },
    {
      "date": "2022-01-29T10:10:14-0300",
      "value": "9.8"
    }
  ]
},{
  "metric": "code_smells",
  "history": [
    {
      "date": "2021-11-25T16:49:11-0300",
      "value": "7065"
    },
    {
      "date": "2021-12-18T15:33:15-0300",
      "value": "6666"
    },
    {
      "date": "2022-01-22T18:26:15-0300",
      "value": "6666"
    },
    {
      "date": "2022-01-24T08:30:03-0300",
      "value": "6666"
    },
    {
      "date": "2022-01-26T14:44:56-0300",
      "value": "6660"
    },
    {
      "date": "2022-01-29T10:10:14-0300",
      "value": "6660"
    }
  ]
},{
  "metric": "bugs",
  "history": [
    {
      "date": "2021-11-25T16:49:11-0300",
      "value": "1035"
    },
    {
      "date": "2021-12-18T15:33:15-0300",
      "value": "1033"
    },
    {
      "date": "2022-01-22T18:26:15-0300",
      "value": "1033"
    },
    {
      "date": "2022-01-24T08:30:03-0300",
      "value": "1033"
    },
    {
      "date": "2022-01-26T14:44:56-0300",
      "value": "1033"
    },
    {
      "date": "2022-01-29T10:10:14-0300",
      "value": "1033"
    }
  ]
},{
  "metric": "vulnerabilities",
  "history": [
    {
      "date": "2021-11-25T16:49:11-0300",
      "value": "2"
    },
    {
      "date": "2021-12-18T15:33:15-0300",
      "value": "2"
    },
    {
      "date": "2022-01-22T18:26:15-0300",
      "value": "2"
    },
    {
      "date": "2022-01-24T08:30:03-0300",
      "value": "2"
    },
    {
      "date": "2022-01-26T14:44:56-0300",
      "value": "2"
    },
    {
      "date": "2022-01-29T10:10:14-0300",
      "value": "2"
    }
  ]
}]},{"key": "ROBOID", "name": "ROBOID", "data": [{
  "metric": "duplicated_lines_density",
  "history": [
    {
      "date": "2021-11-25T12:00:57-0300",
      "value": "0.0"
    },
    {
      "date": "2021-12-07T19:00:38-0300",
      "value": "0.0"
    },
    {
      "date": "2021-12-18T15:29:02-0300",
      "value": "0.0"
    },
    {
      "date": "2021-12-21T16:11:00-0300",
      "value": "0.0"
    },
    {
      "date": "2022-01-06T15:12:12-0300",
      "value": "0.0"
    },
    {
      "date": "2022-01-15T21:27:46-0300",
      "value": "0.0"
    },
    {
      "date": "2022-01-19T11:10:57-0300",
      "value": "0.0"
    },
    {
      "date": "2022-01-24T21:38:53-0300",
      "value": "0.0"
    },
    {
      "date": "2022-01-31T09:53:24-0300",
      "value": "0.0"
    },
    {
      "date": "2022-02-04T14:51:19-0300",
      "value": "0.0"
    },
    {
      "date": "2022-02-08T22:33:00-0300",
      "value": "0.0"
    },
    {
      "date": "2022-02-11T21:16:48-0300",
      "value": "0.0"
    },
    {
      "date": "2022-02-23T22:43:17-0300",
      "value": "0.0"
    },
    {
      "date": "2022-02-24T16:42:08-0300",
      "value": "0.0"
    },
    {
      "date": "2022-02-25T12:07:46-0300",
      "value": "0.0"
    },
    {
      "date": "2022-02-25T15:34:50-0300",
      "value": "0.0"
    },
    {
      "date": "2022-02-25T15:37:17-0300",
      "value": "0.0"
    },
    {
      "date": "2022-02-25T15:42:42-0300",
      "value": "0.0"
    },
    {
      "date": "2022-02-25T15:43:51-0300",
      "value": "0.0"
    }
  ]
},{
  "metric": "code_smells",
  "history": [
    {
      "date": "2021-11-25T12:00:57-0300",
      "value": "83"
    },
    {
      "date": "2021-12-07T19:00:38-0300",
      "value": "50"
    },
    {
      "date": "2021-12-18T15:29:02-0300",
      "value": "29"
    },
    {
      "date": "2021-12-21T16:11:00-0300",
      "value": "9"
    },
    {
      "date": "2022-01-06T15:12:12-0300",
      "value": "9"
    },
    {
      "date": "2022-01-15T21:27:46-0300",
      "value": "5"
    },
    {
      "date": "2022-01-19T11:10:57-0300",
      "value": "0"
    },
    {
      "date": "2022-01-24T21:38:53-0300",
      "value": "5"
    },
    {
      "date": "2022-01-31T09:53:24-0300",
      "value": "0"
    },
    {
      "date": "2022-02-04T14:51:19-0300",
      "value": "0"
    },
    {
      "date": "2022-02-08T22:33:00-0300",
      "value": "5"
    },
    {
      "date": "2022-02-11T21:16:48-0300",
      "value": "5"
    },
    {
      "date": "2022-02-23T22:43:17-0300",
      "value": "7"
    },
    {
      "date": "2022-02-24T16:42:08-0300",
      "value": "6"
    },
    {
      "date": "2022-02-25T12:07:46-0300",
      "value": "6"
    },
    {
      "date": "2022-02-25T15:34:50-0300",
      "value": "8"
    },
    {
      "date": "2022-02-25T15:37:17-0300",
      "value": "8"
    },
    {
      "date": "2022-02-25T15:42:42-0300",
      "value": "8"
    },
    {
      "date": "2022-02-25T15:43:51-0300",
      "value": "8"
    }
  ]
},{
  "metric": "bugs",
  "history": [
    {
      "date": "2021-11-25T12:00:57-0300",
      "value": "22"
    },
    {
      "date": "2021-12-07T19:00:38-0300",
      "value": "22"
    },
    {
      "date": "2021-12-18T15:29:02-0300",
      "value": "18"
    },
    {
      "date": "2021-12-21T16:11:00-0300",
      "value": "0"
    },
    {
      "date": "2022-01-06T15:12:12-0300",
      "value": "0"
    },
    {
      "date": "2022-01-15T21:27:46-0300",
      "value": "0"
    },
    {
      "date": "2022-01-19T11:10:57-0300",
      "value": "0"
    },
    {
      "date": "2022-01-24T21:38:53-0300",
      "value": "0"
    },
    {
      "date": "2022-01-31T09:53:24-0300",
      "value": "0"
    },
    {
      "date": "2022-02-04T14:51:19-0300",
      "value": "0"
    },
    {
      "date": "2022-02-08T22:33:00-0300",
      "value": "0"
    },
    {
      "date": "2022-02-11T21:16:48-0300",
      "value": "0"
    },
    {
      "date": "2022-02-23T22:43:17-0300",
      "value": "0"
    },
    {
      "date": "2022-02-24T16:42:08-0300",
      "value": "0"
    },
    {
      "date": "2022-02-25T12:07:46-0300",
      "value": "0"
    },
    {
      "date": "2022-02-25T15:34:50-0300",
      "value": "0"
    },
    {
      "date": "2022-02-25T15:37:17-0300",
      "value": "0"
    },
    {
      "date": "2022-02-25T15:42:42-0300",
      "value": "0"
    },
    {
      "date": "2022-02-25T15:43:51-0300",
      "value": "0"
    }
  ]
},{
  "metric": "vulnerabilities",
  "history": [
    {
      "date": "2021-11-25T12:00:57-0300",
      "value": "0"
    },
    {
      "date": "2021-12-07T19:00:38-0300",
      "value": "0"
    },
    {
      "date": "2021-12-18T15:29:02-0300",
      "value": "0"
    },
    {
      "date": "2021-12-21T16:11:00-0300",
      "value": "0"
    },
    {
      "date": "2022-01-06T15:12:12-0300",
      "value": "0"
    },
    {
      "date": "2022-01-15T21:27:46-0300",
      "value": "3"
    },
    {
      "date": "2022-01-19T11:10:57-0300",
      "value": "0"
    },
    {
      "date": "2022-01-24T21:38:53-0300",
      "value": "1"
    },
    {
      "date": "2022-01-31T09:53:24-0300",
      "value": "0"
    },
    {
      "date": "2022-02-04T14:51:19-0300",
      "value": "0"
    },
    {
      "date": "2022-02-08T22:33:00-0300",
      "value": "3"
    },
    {
      "date": "2022-02-11T21:16:48-0300",
      "value": "3"
    },
    {
      "date": "2022-02-23T22:43:17-0300",
      "value": "3"
    },
    {
      "date": "2022-02-24T16:42:08-0300",
      "value": "3"
    },
    {
      "date": "2022-02-25T12:07:46-0300",
      "value": "3"
    },
    {
      "date": "2022-02-25T15:34:50-0300",
      "value": "3"
    },
    {
      "date": "2022-02-25T15:37:17-0300",
      "value": "3"
    },
    {
      "date": "2022-02-25T15:42:42-0300",
      "value": "3"
    },
    {
      "date": "2022-02-25T15:43:51-0300",
      "value": "3"
    }
  ]
}]},{"key": "ENDICIL", "name": "ENDICIL", "data": [{
  "metric": "duplicated_lines_density",
  "history": [
    {
      "date": "2021-11-25T17:44:17-0300",
      "value": "26.1"
    },
    {
      "date": "2021-11-26T10:03:13-0300",
      "value": "26.2"
    },
    {
      "date": "2021-12-18T16:36:48-0300",
      "value": "26.2"
    }
  ]
},{
  "metric": "code_smells",
  "history": [
    {
      "date": "2021-11-25T17:44:17-0300",
      "value": "254"
    },
    {
      "date": "2021-11-26T10:03:13-0300",
      "value": "258"
    },
    {
      "date": "2021-12-18T16:36:48-0300",
      "value": "251"
    }
  ]
},{
  "metric": "bugs",
  "history": [
    {
      "date": "2021-11-25T17:44:17-0300",
      "value": "8"
    },
    {
      "date": "2021-11-26T10:03:13-0300",
      "value": "8"
    },
    {
      "date": "2021-12-18T16:36:48-0300",
      "value": "8"
    }
  ]
},{
  "metric": "vulnerabilities",
  "history": [
    {
      "date": "2021-11-25T17:44:17-0300",
      "value": "5"
    },
    {
      "date": "2021-11-26T10:03:13-0300",
      "value": "5"
    },
    {
      "date": "2021-12-18T16:36:48-0300",
      "value": "5"
    }
  ]
}]},{"key": "EARTHWAX", "name": "EARTHWAX", "data": [{
  "metric": "duplicated_lines_density",
  "history": [
    {
      "date": "2021-11-25T06:37:01-0300",
      "value": "27.5"
    },
    {
      "date": "2021-11-25T06:47:04-0300",
      "value": "27.5"
    },
    {
      "date": "2021-11-25T10:40:31-0300",
      "value": "27.5"
    }
  ]
},{
  "metric": "code_smells",
  "history": [
    {
      "date": "2021-11-25T06:37:01-0300",
      "value": "111"
    },
    {
      "date": "2021-11-25T06:47:04-0300",
      "value": "111"
    },
    {
      "date": "2021-11-25T10:40:31-0300",
      "value": "111"
    }
  ]
},{
  "metric": "bugs",
  "history": [
    {
      "date": "2021-11-25T06:37:01-0300",
      "value": "0"
    },
    {
      "date": "2021-11-25T06:47:04-0300",
      "value": "0"
    },
    {
      "date": "2021-11-25T10:40:31-0300",
      "value": "0"
    }
  ]
},{
  "metric": "vulnerabilities",
  "history": [
    {
      "date": "2021-11-25T06:37:01-0300",
      "value": "0"
    },
    {
      "date": "2021-11-25T06:47:04-0300",
      "value": "2"
    },
    {
      "date": "2021-11-25T10:40:31-0300",
      "value": "2"
    }
  ]
}]}]
